#;Team;Matches;Rounds;RD;
1; Team Liquid;3 - 0;51 - 30;21;
1; Ninjas in Pyjamas;3 - 0;60 - 43;17;
3; Astralis;3 - 1;74 - 48;26;
3; compLexity Gaming;3 - 1;55 - 54;1;
3; HellRaisers;3 - 1;69 - 70;-1;
6; BIG;3 - 2;92 - 69;23;
6; Vega Squadron;3 - 2;99 - 89;10;
6; TyLoo;3 - 2;114 - 106;8;
9; North;2 - 3;92 - 96;-4;
9; Team Spirit;2 - 3;84 - 90;-6;
9; OpTic Gaming;2 - 3;91 - 112;-21;
12; Gambit Esports;1 - 3;55 - 61;-6;
12; Rogue;1 - 3;56 - 67;-11;
12; Renegades;1 - 3;45 - 63;-18;
15; Space Soldiers;0 - 3;36 - 51;-15;
15; Virtus.pro;0 - 3;24 - 48;-24;